\relax 
\catcode `:\active 
\catcode `;\active 
\catcode `!\active 
\catcode `?\active 
\select@language{francais}
\@writefile{toc}{\select@language{francais}}
\@writefile{lof}{\select@language{francais}}
\@writefile{lot}{\select@language{francais}}
\select@language{french}
\@writefile{toc}{\select@language{french}}
\@writefile{lof}{\select@language{french}}
\@writefile{lot}{\select@language{french}}
\@writefile{toc}{\contentsline {section}{\numberline {1}Introduction}{2}}
\@writefile{toc}{\contentsline {section}{\numberline {2}Application \`a l'\'equation de la chaleur}{3}}
\newlabel{cv_err}{{1}{3}}
\@writefile{toc}{\contentsline {section}{\numberline {3}Conclusion}{4}}
