\select@language {francais}
\select@language {french}
\contentsline {section}{\numberline {1}Introduction}{2}
\contentsline {section}{\numberline {2}Application \`a l'\'equation de la chaleur}{3}
\contentsline {section}{\numberline {3}Conclusion}{4}
